 Programa
   Programa de robot
     MoverJ
       Disparo2
     Find≔0
     Camera Locate
       Para los objeto(s) encontrados
         Find≔1
         Aviso
     If Find≟0
       Camera Locate
         Para los objeto(s) encontrados
           Find≔2
           Aviso
     If Find≟0
       Aviso
