 Programa
   Programa de robot
     Gripper Activate
     pieza_encontrad≔ False 
     MoverJ
       Disparo
     Pinza abierta (1)
     'Prueba actualizacion'
     Esperar Final_carrera=LO
     Esperar Final_carrera=HI
     Camera Locate
       Para los objeto(s) encontrados
         MoverJ
           Arriba1
         MoverL
           Abajo1_1
         Pinza cerrada (1)
         MoverL
           Punto_de_paso_3
           Punto_de_paso_4
           Punto_de_paso_5
         Pinza abierta (1)
       pieza_encontrad≔ True 
