 Programa
   Programa de robot
     MoverJ
       Disparo2
     Find≔ False 
     Camera Locate
       Para los objeto(s) encontrados
         Aviso
         Find≔ True 
     Camera Locate
       Para los objeto(s) encontrados
         Aviso
         Find≔ True 
     If Find≟ False 
       Aviso
