 Program
   Robot Program
     rq_activate_and_wait()
     Loop 1 times
       Gripper Open (1)
       MoveJ
         Home
       MoveJ
         Recojo_pieza
       Gripper Close (1)
       MoveJ
         Home
       MoveJ
         Elevado
       MoveJ
         EncimaCaja
       MoveL
         DentroCaja
       Gripper Open (1)
       MoveJ
         EncimaCaja
       MoveJ
         Elevado
       MoveJ
         Home
